<?xml version="1.0" encoding="UTF-8" standalone="no"?>
<!-- Created with Inkscape (http://www.inkscape.org/) -->

<svg
   version="1.1"
   id="svg1"
   width="1236.3636"
   height="1236.3636"
   viewBox="0 0 1236.3636 1236.3636"
   xmlns="http://www.w3.org/2000/svg"
   xmlns:svg="http://www.w3.org/2000/svg">
  <defs
     id="defs1" />
  <g
     id="g1">
    <path
       id="path12"
       style="opacity:1;fill:#c9f589;fill-opacity:1;stroke-width:0.993234"
       d="m 610.41593,427.92278 c -12.82823,-0.54211 -28.91966,5.65786 -31.76021,19.5252 -1.70739,13.79687 12.26418,23.45944 24.14024,26.43709 20.84028,4.29526 43.37076,1.06439 63.1289,8.46605 30.74326,10.14059 60.05697,23.92965 85.97258,43.4537 8.2179,7.57213 18.2881,14.22899 23.35263,24.45645 1.54062,10.89958 -2.57766,21.75664 -3.22973,32.64672 -9.22111,72.99195 -19.45843,145.83589 -27.78438,218.954 -0.6452,13.63905 -4.39033,28.37443 1.35483,41.3761 4.605,9.84139 18.20651,12.93232 26.5205,5.87211 13.62236,-9.05798 15.37294,-26.93613 16.67741,-41.4229 6.60406,-50.02707 14.50839,-100.44862 21.39646,-150.39749 1.67204,-9.3841 0.47704,-20.20512 6.15608,-28.31671 5.06802,-4.17132 11.87977,1.65315 17.07262,3.30951 24.84328,11.11636 50.23484,21.02134 75.22054,31.74273 3.94187,1.30621 -1.58597,4.26181 -2.00781,6.32411 -8.796,13.96825 -8.42774,31.33482 -9.19323,47.26202 0.60981,36.72024 5.41506,73.65107 16.21533,108.81231 3.08541,11.36927 10.72791,24.4899 24.04556,24.53127 13.07852,0.74385 25.87439,-13.21108 20.06927,-26.07757 -9.52392,-25.93067 -17.79912,-52.12894 -18.96913,-79.94295 -1.81232,-29.50153 3.34344,-62.40789 26.42524,-83.14203 5.68338,-4.94684 12.37216,-9.83278 20.17894,-10.25048 55.84873,62.66679 109.01803,127.67792 164.82643,190.37499 6.6318,8.9553 19.6627,13.40974 29.6069,7.24363 10.4229,-5.23705 11.4422,-19.08799 6.3338,-28.43714 -9.0818,-15.07931 -22.6761,-26.79358 -33.4856,-40.59159 -49.3477,-57.81806 -98.2649,-116.02506 -148.0765,-173.43477 -15.90659,-14.97434 -36.98668,-22.56666 -55.92268,-32.83505 -32.46167,-15.92843 -65.19837,-31.80469 -99.64508,-42.99213 -12.40524,-4.01947 -26.30426,-3.71582 -37.79656,-10.22336 -19.64176,-14.5666 -34.97577,-34.57685 -56.65356,-46.53355 -39.02245,-23.87663 -83.56454,-37.16193 -128.24701,-45.5598 -5.27577,-0.71746 -10.61067,-0.67762 -15.92278,-0.63047 z m 93.50172,103.21873 c -23.12242,0.13356 -43.89013,22.07077 -41.4811,45.39971 1.17249,22.97854 20.11893,44.90558 43.87494,45.36867 22.76561,1.09033 45.06906,-17.42418 45.83038,-40.68573 1.69384,-26.09475 -20.76461,-53.27764 -48.22422,-50.08265 z M 284.90099,378.19901 c -26.05119,-0.44731 -51.98296,19.29277 -54.77724,45.88857 -4.44718,26.38476 16.61834,53.79452 43.33759,55.84613 26.35007,2.18871 53.17395,-16.79105 57.69098,-43.24835 5.3813,-25.5363 -12.88832,-53.51625 -38.63137,-58.20506 -2.52859,-0.29325 -5.07866,-0.28107 -7.61996,-0.28129 z m 214.50564,87.73385 c -14.2664,0.64136 -26.16821,9.69304 -38.93419,15.03528 -46.7525,21.10556 -97.54771,32.46153 -148.23877,38.06257 -24.96387,2.7529 -49.7671,2.37649 -74.55985,1.68595 -31.58477,-1.94205 -63.07274,-7.43734 -93.18249,-17.27103 -19.24563,-6.40011 -37.98771,-14.98691 -54.212125,-27.28738 -7.669115,-5.36395 -17.335318,-11.11792 -26.92209,-7.29711 -10.687508,3.22512 -16.916561,15.09813 -14.837783,25.82256 1.877805,12.70802 12.467286,21.84783 22.976347,28.00811 24.129663,12.85313 49.930241,22.24681 75.696911,31.23107 22.36175,7.28085 45.05618,14.21971 68.45129,17.19647 3.2978,0.6493 7.11453,-0.12503 10.16281,0.69982 3.24853,11.26764 3.75863,23.15625 4.67084,34.80224 1.88516,33.05116 -5.80052,66.08476 -18.73574,96.21023 -9.1056,20.95129 -21.03915,41.34633 -35.394,58.41499 -16.27798,18.14528 -35.38928,35.50768 -59.42191,42.1947 -15.42902,4.63425 -31.663875,4.98613 -47.294359,8.5257 -10.019082,3.05266 -20.1162,10.16465 -22.951357,20.7286 -2.086352,9.01877 5.507934,17.28866 13.298863,20.51055 10.539783,3.27969 21.816585,2.38745 32.709405,3.06875 29.307298,1.32896 58.273448,-8.68321 82.659338,-24.50431 38.24861,-24.36762 66.86027,-62.12351 83.67057,-103.94092 2.2424,-4.43585 2.30815,-10.47829 6.46232,-13.67879 7.71145,-1.33919 15.73318,-0.88487 23.51418,-0.18151 26.63813,4.03284 49.89256,20.16202 67.4061,40.04642 17.08187,19.57781 31.11768,42.70614 36.66159,68.32065 2.06212,8.99341 -0.0281,19.41995 6.4251,26.9893 7.44194,9.51136 22.20492,12.05956 32.2214,5.15218 9.93049,-6.47792 11.32305,-19.81513 9.2769,-30.53064 -7.91728,-43.29323 -30.247,-83.48504 -61.42205,-114.36977 -12.59936,-12.44168 -27.10167,-23.63525 -44.301,-28.76226 -1.73229,-1.13084 -5.93324,-1.25038 -5.79721,-3.56532 2.03199,-10.54165 0.77904,-21.4099 1.08603,-32.08325 -0.14163,-27.30252 -0.64737,-54.64735 -0.31885,-81.85269 15.13478,-3.83573 30.83847,-4.88274 46.19753,-7.60817 38.61957,-6.19386 75.05037,-21.06874 111.53077,-34.57563 11.60333,-4.89782 24.04167,-9.48093 33.03487,-18.65146 6.72642,-6.66998 7.2308,-17.83235 1.72615,-25.40015 -5.10517,-7.40873 -14.48718,-11.28116 -23.31554,-11.14575 z" />
    <path
       style="display:inline;fill:#64a915;stroke:none"
       d="m 273.96978,371.85683 c -48.21343,7.51474 -72.25921,74.23908 -29.09091,104.61115 5.86956,4.12971 11.94724,7.01226 18.90909,8.79351 8.23744,2.10759 16.35085,2.26624 24.72727,0.96972 48.39016,-7.49006 70.38823,-74.4343 28.36364,-104.4826 -5.72865,-4.09606 -12.06701,-7.1139 -18.90909,-8.83274 -7.42811,-1.86612 -16.41031,-2.24201 -24,-1.05904 m 6.54545,14.43386 c 28.24738,-3.33265 48.25995,24.79057 42.42536,50.70144 -4.29887,19.09091 -21.84681,32.93475 -40.97081,34.7856 -29.58607,2.86337 -51.23072,-25.96227 -42.36644,-53.69469 5.877,-18.38654 22.27116,-29.59313 40.91189,-31.79235 m 540.36364,248.51962 c 18.7595,8.87856 38.36497,16.16092 57.45455,24.30638 4.06934,1.73637 17.78232,4.99631 19.33274,9.34797 0.99965,2.80579 -2.52495,8.55411 -3.23792,11.43656 -2.28942,9.25609 -3.01723,18.88925 -3.66611,28.36364 -2.51651,36.74166 3.50852,76.68626 13.54217,112 3.99441,14.05842 8.61035,31.74468 24.21094,36.82937 17.57519,5.72834 39.56454,-7.72585 37.69469,-27.37482 -1.19744,-12.58319 -8.48793,-25.02628 -12.22159,-37.09091 -9.38388,-30.32267 -12.03134,-63.84824 -3.23411,-94.54546 4.25568,-14.84987 13.77956,-31.31747 28.6701,-37.56845 5.6547,-2.3738 9.3968,4.78112 12.5606,8.47754 9.76077,11.40399 19.57957,22.75524 29.31477,34.18182 41.2691,48.43883 81.6536,98.10156 124.1612,145.42596 16.4005,18.25888 52.5842,11.48242 51.1453,-16.69868 -0.8053,-15.77397 -13.8878,-27.27966 -23.5303,-38.54546 -20.7028,-24.18821 -41.1515,-48.59588 -61.9203,-72.72727 -25.336,-29.4379 -50.3333,-59.17299 -75.5338,-88.72728 -10.3949,-12.19091 -20.2954,-29.45095 -32.954,-39.15709 -9.57657,-7.34304 -22.14817,-12.64537 -32.69802,-18.60609 -35.11807,-19.84198 -72.40545,-35.43324 -110.54545,-48.41642 -8.79377,-2.99347 -17.7508,-5.89302 -26.90909,-7.55557 -4.76776,-0.8655 -10.87474,-0.19718 -15.27273,-2.216 -5.67152,-2.60343 -10.00604,-8.54519 -14.54545,-12.65261 -11.35201,-10.27157 -22.2358,-21.75178 -35.63637,-29.41815 -30.97408,-17.72008 -63.03098,-32.57137 -97.45454,-42.39444 -10.78179,-3.0767 -21.80159,-4.03808 -32.72728,-6.33727 -20.58869,-4.33265 -45.70605,-9.72434 -60.64759,10.39001 -15.0257,20.22762 6.04998,40.18004 25.01123,45.50674 15.25342,4.28507 30.62744,0.14702 45.81818,3.07857 28.58638,5.51669 58.85627,20.56676 83.63636,35.33896 10.21343,6.08855 18.11941,12.72634 26.9091,20.67955 3.55193,3.21391 9.14604,6.78343 10.69478,11.55216 1.73171,5.33221 -1.19922,13.657 -1.85467,19.11674 -1.8363,15.29528 -3.98651,30.51954 -5.81819,45.81819 -6.21555,51.91273 -14.28471,103.65332 -19.86985,155.63636 -2.33806,21.76119 -10.4549,48.43608 -3.25701,69.81818 1.14959,3.41495 2.76198,6.66833 5.07129,9.45402 17.21919,20.77166 43.66211,1.5348 49.40012,-18.90856 5.30727,-18.90856 5.91824,-40.84943 8.63743,-60.36364 6.37154,-45.72572 11.8133,-92.07227 20.26882,-137.45455 M 608.51524,435.74524 c 13.10427,-1.56632 28.01216,3.4755 40.72727,6.13015 38.85298,8.11177 82.49485,25.02157 114.90909,48.14195 15.30105,10.91389 27.01474,28.35246 42.90962,37.87265 13.2366,7.92805 31.28658,6.85418 45.81765,12.42201 37.28942,14.28813 73.24779,30.19132 108.36364,49.18293 8.06934,4.36412 17.01512,7.41069 24.72732,12.3687 11.5609,7.4323 19.60477,18.28142 28.45837,28.58305 13.7064,15.94815 27.3012,31.99294 40.9389,48 34.2563,40.20792 68.7079,80.26873 102.6678,120.72727 7.0233,8.36719 17.8195,17.41921 22.0202,27.63637 2.529,6.15136 0.9969,13.73792 -5.7221,16.31765 -8.5472,3.2816 -14.9422,-2.22532 -20.1661,-8.31765 l -28.0304,-32.72728 c -34.673,-40.5103 -69.5279,-80.86501 -104.1095,-121.45454 -8.2849,-9.72426 -16.6349,-19.39347 -24.95117,-29.09091 -3.4405,-4.01194 -7.3604,-9.13628 -13.2879,-8.36027 -16.88127,2.21001 -31.14015,17.01843 -39.26426,30.90572 -19.05033,32.56463 -16.91717,75.9601 -8.10049,111.27273 2.46226,9.86204 5.35697,19.54199 8.85804,29.09091 1.9256,5.25195 5.25204,11.06694 5.6139,16.72727 0.35583,5.56623 -4.28578,9.97079 -9.28897,11.41469 -12.12385,3.49884 -16.7864,-8.68475 -19.87882,-17.96014 -7.65172,-22.95011 -11.2595,-46.60201 -14.09535,-70.54546 -2.55726,-21.59171 -3.19966,-44.70019 0.58079,-66.18182 0.72301,-4.10822 1.82528,-8.78835 4.28001,-12.24019 2.91965,-4.10569 7.80975,-6.62593 6.15101,-12.4865 -2.106,-7.44061 -16.42161,-10.63508 -22.85582,-13.2374 -18.04723,-7.29918 -35.79067,-15.34339 -53.81819,-22.68798 -6.62455,-2.69891 -15.27388,-8.46991 -22.54545,-8.34176 -17.63308,0.31077 -15.9067,28.83079 -17.76092,41.35747 -6.81632,46.04976 -13.61515,92.10676 -20.25426,138.18182 -1.83097,12.70685 -0.74379,27.66175 -8.1812,38.54261 -3.30256,4.83168 -10.08292,10.50995 -16.28116,7.04439 -7.03161,-3.93146 -6.37038,-14.14817 -6.21715,-20.85973 0.39506,-17.30495 3.44806,-34.3805 5.38547,-51.63636 5.807,-51.72186 13.58159,-103.23225 19.78569,-154.90909 1.80629,-15.04528 4.01669,-30.04479 5.81818,-45.09091 0.77167,-6.44496 3.37918,-14.67246 2.34615,-21.09091 -1.24405,-7.72989 -7.35289,-13.15412 -12.6408,-18.21045 -9.39169,-8.98043 -18.48198,-17.5716 -29.81818,-24.08021 -27.67774,-15.89107 -58.58403,-31.79102 -90.18182,-38.11 -15.75231,-3.15021 -32.4549,0.10662 -48,-4.27441 -8.59952,-2.42357 -22.76394,-12.02992 -14.2587,-22.16611 4.61461,-5.49956 12.60853,-7.05451 19.34961,-7.86026 M 337.24251,567.17395 c 18.68288,-2.37353 37.54092,-3.50431 56,-7.58137 35.89994,-7.92924 72.42165,-21.22873 106.18182,-35.6341 19.61954,-8.37162 48.45499,-29.12899 28.85182,-52.784 -8.85546,-10.68581 -25.14723,-14.22647 -38.30637,-11.26314 -12.92427,2.91043 -25.70139,12.13921 -37.81818,17.58576 -19.15634,8.61089 -39.44851,14.667 -59.63637,20.27726 -76.08176,21.14338 -165.66024,25.00186 -241.45454,0.78569 -14.78863,-4.72497 -29.51147,-10.44407 -42.90909,-18.37039 -8.836378,-5.2278 -16.596358,-13.29874 -26.181818,-16.96857 -21.011023,-8.04412 -41.699229,6.36026 -40.698658,29.04377 0.793785,17.99556 15.356979,29.66606 29.789563,37.71662 31.584313,17.6179 67.811343,29.40833 102.545453,39.06565 11.43397,3.17907 23.11024,6.59504 34.90909,8.10099 4.18715,0.53444 10.39203,-0.22439 12.11337,4.58531 6.38381,17.83723 3.8115,42.04945 1.17452,60.34961 -7.91961,54.96058 -35.9278,112.30829 -83.10606,143.75764 -11.65131,7.76678 -25.26462,14.14453 -39.272738,16.03249 -13.33276,1.79688 -27.603259,0.18963 -39.999998,6.21662 -12.925577,6.28418 -23.776729,20.50444 -18.217176,35.4478 8.68263,23.33771 41.780184,20.55167 61.853552,19.66495 62.00611,-2.73899 116.47295,-48.69993 146.49044,-100.39222 5.32511,-9.17019 10.17126,-18.5997 14.32997,-28.36364 1.57748,-3.70361 2.62795,-10.65239 6.02919,-13.09934 5.00066,-3.59762 15.98277,-1.10951 21.51402,0.0112 40.60097,8.22643 73.13632,44.34845 88.28845,81.45175 3.04478,7.45578 5.96724,15.30983 7.37429,23.27272 2.5799,14.60032 1.3243,27.87891 17.06454,35.77442 17.26562,8.6606 40.02264,-0.1677 44.15545,-19.77442 3.26158,-15.47354 -3.3774,-36.40811 -8.8283,-50.90909 -11.87571,-31.59273 -30.36857,-64.24827 -55.70144,-87.06565 -9.14715,-8.23886 -18.36075,-16.35924 -29.08026,-22.54603 -4.22874,-2.44061 -14.15969,-5.02424 -16.70707,-9.13357 -1.40028,-2.25888 -0.74747,-5.98806 -0.74747,-8.52748 v -20.36363 -76.36364 m 161.45454,-92.81818 c 17.37141,-0.88796 27.78525,16.56552 10.90909,27.12802 -14.01416,8.7713 -29.74773,13.71635 -45.09091,19.45339 -27.08061,10.12575 -55.12091,20.42147 -83.63636,25.5645 -14.02628,2.52978 -28.16322,3.87402 -42.18182,6.30863 -5.06971,0.88046 -12.35196,1.13734 -15.61561,5.66833 -3.11375,4.32284 -1.11166,14.39946 -1.11166,19.6044 v 51.63637 c 0,13.16583 0.65205,26.37819 0.59539,39.50954 -0.0201,4.65936 -3.84903,9.05509 -0.68069,13.44669 4.07551,5.64901 16.46929,7.20073 22.63075,10.54097 13.39835,7.26349 25.23509,17.76958 35.57129,28.86643 23.43022,25.15452 41.72399,57.4755 49.97475,90.90909 2.93448,11.89098 8.57231,33.5396 -8.45513,36.75089 -6.84051,1.29004 -14.36514,-1.96981 -17.41805,-8.38725 -2.42579,-5.09916 -0.80287,-11.86435 -1.92765,-17.45454 -2.41224,-11.98891 -6.6721,-23.96156 -12.10716,-34.9091 -20.88658,-42.07066 -60.6487,-82.39697 -110.36532,-84.33447 -5.6507,-0.22021 -15.64684,-0.24556 -20.33165,3.25364 -5.0799,3.7943 -6.4385,12.89178 -8.76712,18.53538 -5.11587,12.39875 -11.36916,24.27468 -18.4826,35.63636 -27.48637,43.90164 -74.44298,81.97941 -127.69135,85.88273 -8.789978,0.64435 -16.722498,-0.38077 -25.454548,-0.76323 -6.928571,-0.30336 -13.575194,0.61213 -19.567904,-3.7413 -13.867027,-10.07351 6.179322,-23.1701 15.931536,-24.44052 23.141638,-3.01456 42.772196,-4.05176 64.000006,-15.70987 23.39472,-12.8481 43.01844,-33.76607 57.69697,-55.77326 30.48502,-45.70557 48.3287,-104.17871 40.17394,-159.27273 -0.96935,-6.54896 -1.15516,-19.9106 -7.09874,-23.99325 -3.78995,-2.60334 -8.72128,-0.77557 -12.954,-1.27499 -9.52474,-1.12389 -19.06736,-3.22475 -28.36363,-5.54883 -30.59071,-7.64769 -60.48975,-18.2983 -89.454548,-30.69474 -14.64999,-6.26997 -42.628095,-16.68031 -42.895623,-35.94274 -0.13785,-9.92551 8.317206,-17.24041 18.168352,-13.92427 8.044621,2.7081 15.930671,10.51243 23.272731,14.94167 13.482728,8.1337 27.988298,14.37261 42.909088,19.34624 82.81265,27.60423 177.01334,22.46489 260.36364,-0.11 21.96835,-5.95001 43.1523,-13.64835 64,-22.74414 10.67494,-4.65749 21.5391,-13.35493 33.45454,-13.96404 m 201.45455,49.49325 c -7.99925,1.146 -15.7959,3.69514 -22.54545,8.23349 -44.06037,29.62593 -16.96037,104.23411 36.36363,96.59819 8.40297,-1.2033 16.24157,-3.69318 23.27273,-8.56512 43.77344,-30.33088 16.38192,-103.92734 -37.09091,-96.26656 m 1.45455,15.17174 c 38.55779,-5.0229 59.25834,48.82382 25.45454,69.5578 -4.29856,2.63658 -9.55193,4.27992 -14.54545,4.9304 -38.37984,4.99973 -58.91207,-49.83137 -24.72728,-69.69754 4.2346,-2.46089 8.95295,-4.15687 13.81819,-4.79066 m -379.8788,138.45624 -0.24241,0.48482 0.24241,-0.48482 m 0.24243,2.42422 -0.72727,0.72728 z"
       id="path1" />
  </g>
</svg>
